<?xml version="1.0" encoding="utf-8"?>
<!-- Generator: Adobe Illustrator 22.1.0, SVG Export Plug-In . SVG Version: 6.00 Build 0)  -->
<svg version="1.0" id="Laag_1" xmlns="http://www.w3.org/2000/svg" xmlns:xlink="http://www.w3.org/1999/xlink" x="0px" y="0px"
	 viewBox="0 0 300 300" style="enable-background:new 0 0 300 300;" xml:space="preserve">
<style type="text/css">
	.st0{fill:none;}
	.st1{fill:#2C3740;}
	.st2{fill:#FBE609;}
	.st3{fill:#FFFFFF;}
</style>
<rect class="st0" width="300" height="300"/>
<g>
	<circle class="st1" cx="150" cy="150" r="119"/>
	<path class="st2" d="M150,18.5c56.1,0,104.1,35.2,122.9,84.7h16.5C269.9,45,214.8,3,150,3C104.4,3,63.6,23.8,36.6,56.5h21
		C81.3,33,114,18.5,150,18.5z M24.7,109.9H19c0.7-2.3,1.4-4.5,2.2-6.7h5.8C31.7,91.1,38,79.9,45.8,69.8h-19C11.7,92.9,3,120.4,3,150
		h15.5C18.5,136,20.7,122.5,24.7,109.9z M281.5,150H297c0-13.9-1.9-27.3-5.5-40.1h-16.2C279.3,122.5,281.5,136,281.5,150z
		 M245.7,240.2h7.4c-2,2.3-4.1,4.5-6.2,6.7h-7.9c-23.4,21.5-54.6,34.6-88.9,34.6c-34.3,0-65.5-13.1-88.9-34.6H39.5
		C66.4,277.6,105.9,297,150,297c62.3,0,115.6-38.8,137-93.5h-16.8C264.1,217.1,255.8,229.5,245.7,240.2z M18.5,151.7H3
		c0.4,33.4,11.8,64,30.9,88.5h20.4C32.5,217,18.9,185.9,18.5,151.7z M275.3,190.1h16.2c3.5-12.2,5.4-25.1,5.5-38.4h-15.5
		C281.3,165.1,279.1,178,275.3,190.1z"/>
</g>
</svg>
