<?xml version="1.0" encoding="utf-8"?>
<!-- Generator: Adobe Illustrator 22.1.0, SVG Export Plug-In . SVG Version: 6.00 Build 0)  -->
<svg version="1.0" id="Laag_1" xmlns="http://www.w3.org/2000/svg" xmlns:xlink="http://www.w3.org/1999/xlink" x="0px" y="0px"
	 viewBox="0 0 300 300" style="enable-background:new 0 0 300 300;" xml:space="preserve">
<style type="text/css">
	.st0{fill:none;}
	.st1{fill:#2C3740;}
	.st2{fill:#65979F;}
	.st3{fill:#FBE609;}
</style>
<rect class="st0" width="300" height="300"/>
<circle class="st1" cx="150" cy="150" r="76.9"/>
<path class="st2" d="M150,65c36.3,0,67.3,22.7,79.4,54.8h10.6C227.5,82.1,191.9,55,150,55c-29.5,0-55.9,13.4-73.3,34.5h13.6
	C105.6,74.4,126.7,65,150,65z M69,124.1h-3.7c0.4-1.5,0.9-2.9,1.4-4.3h3.8c3-7.8,7.1-15.1,12.1-21.6H70.4
	C60.7,113.1,55,130.9,55,150h10C65,141,66.4,132.3,69,124.1z M235,150h10c0-9-1.2-17.7-3.6-25.9H231C233.6,132.3,235,141,235,150z
	 M211.8,208.3h4.8c-1.3,1.5-2.6,2.9-4,4.3h-5.1C192.3,226.5,172.2,235,150,235c-22.2,0-42.3-8.5-57.5-22.4h-14
	C96,232.5,121.5,245,150,245c40.3,0,74.7-25.1,88.5-60.5h-10.9C223.7,193.4,218.4,201.4,211.8,208.3z M65,151.1H55
	c0.2,21.6,7.7,41.4,20,57.2h13.2C74,193.3,65.3,173.2,65,151.1z M231,175.9h10.5c2.2-7.9,3.5-16.2,3.6-24.8h-10
	C234.9,159.7,233.5,168.1,231,175.9z"/>
<g>
	<circle class="st3" cx="150" cy="185.4" r="1.9"/>
	<path class="st3" d="M181,128.3l-30.3-13.2c-0.5-0.2-1-0.2-1.5,0c-18.6,8.1-30.2,13.2-30.2,13.2c0,0-1.1,0.5-1.1,1.7v11.7
		c-2.2,0.8-3.8,2.9-3.8,5.3v7.6c0,1,0.8,1.9,1.9,1.9h7.6c1,0,1.9-0.8,1.9-1.9v-7.6c0-2.5-1.6-4.6-3.8-5.3v-8.8l11.3,5v12.9
		c0,0.7,0.4,1.4,1.1,1.7c0.4,0.2,9,3.9,15.9,3.9s15.5-3.8,15.9-3.9c0.7-0.3,1.1-1,1.1-1.7v-12.9l14-6.1c0.7-0.3,1.1-1,1.1-1.7
		S181.7,128.6,181,128.3L181,128.3z M121.6,152.7h-3.8v-5.7c0-1,0.8-1.9,1.9-1.9s1.9,0.8,1.9,1.9V152.7z M163.2,149.6
		c-2.5,1-8.5,3.2-13.2,3.2c-4.8,0-10.8-2.2-13.2-3.2v-10l12.5,5.5c0.5,0.2,1,0.2,1.5,0l12.5-5.5V149.6z M150,141.2
		c-3.6-1.6-21.9-9.6-25.5-11.2l25.5-11.2l25.5,11.2C172.2,131.5,151.9,140.4,150,141.2L150,141.2z"/>
	<path class="st3" d="M189,141.4h-16.3c-1,0-1.9,0.8-1.9,1.9c0,1,0.8,1.9,1.9,1.9H189c1,0,1.9-0.8,1.9-1.9
		C190.9,142.2,190,141.4,189,141.4z"/>
	<path class="st3" d="M189,148.9h-16.3c-1,0-1.9,0.8-1.9,1.9s0.8,1.9,1.9,1.9H189c1,0,1.9-0.8,1.9-1.9S190,148.9,189,148.9z"/>
	<circle class="st3" cx="150" cy="104.9" r="1.9"/>
	<path class="st3" d="M196.5,103h-38c-1,0-1.9,0.8-1.9,1.9c0,1,0.8,1.9,1.9,1.9h36.1v57.9h-89.3v-57.9h36.1c1,0,1.9-0.8,1.9-1.9
		c0-1-0.8-1.9-1.9-1.9h-38c-1,0-1.9,0.8-1.9,1.9v73c0,1,0.8,1.9,1.9,1.9h36.7l-3.1,16.3h-6c-1,0-1.9,0.8-1.9,1.9s0.8,1.9,1.9,1.9
		h37.8c1,0,1.9-0.8,1.9-1.9s-0.8-1.9-1.9-1.9h-6l-3.1-16.3h36.7c1,0,1.9-0.8,1.9-1.9v-73C198.4,103.8,197.6,103,196.5,103z
		 M140.9,196l3.1-16.3h12l3.1,16.3H140.9z M194.6,176c-2,0-89.1,0-89.3,0v-7.6h89.3V176z"/>
</g>
</svg>
