<?xml version="1.0" encoding="utf-8"?>
<!-- Generator: Adobe Illustrator 22.1.0, SVG Export Plug-In . SVG Version: 6.00 Build 0)  -->
<svg version="1.0" id="Laag_1" xmlns="http://www.w3.org/2000/svg" xmlns:xlink="http://www.w3.org/1999/xlink" x="0px" y="0px"
	 viewBox="0 0 304 143" style="enable-background:new 0 0 304 143;" xml:space="preserve">
<style type="text/css">
	.st0{fill:#FBE609;}
	.st1{opacity:0.5;}
	.st2{fill:#EABE03;}
</style>
<rect class="st0" width="304" height="143"/>
<g>
	<g class="st1">
		<rect x="288" y="16" class="st2" width="16" height="1"/>
		<rect x="296" y="64" class="st2" width="8" height="1"/>
		<rect x="272" y="32" class="st2" width="32" height="2"/>
		<rect x="284" y="48" class="st2" width="20" height="4"/>
	</g>
	<g class="st1">
		<rect y="96" class="st2" width="64" height="2"/>
		<rect y="112" class="st2" width="8" height="8"/>
		<rect y="79" class="st2" width="16" height="1"/>
	</g>
</g>
</svg>
