<?xml version="1.0" encoding="utf-8"?>
<!-- Generator: Adobe Illustrator 22.1.0, SVG Export Plug-In . SVG Version: 6.00 Build 0)  -->
<svg version="1.1" id="Laag_1" xmlns="http://www.w3.org/2000/svg" xmlns:xlink="http://www.w3.org/1999/xlink" x="0px" y="0px"
	 viewBox="0 0 600 852" style="enable-background:new 0 0 600 852;" xml:space="preserve">
<style type="text/css">
	.st0{fill:#FFFFFF;}
	.st1{fill:#EABE03;}
	.st2{fill:#65979F;}
	.st3{fill:#EC911F;}
	.st4{fill:#616267;}
</style>
<path class="st0" d="M533.4,60.1c0-12.8-10.4-23.1-23.1-23.1c-2.9,0-5.9,0.6-8.6,1.7V27.8c0-2.7-2.2-4.9-4.9-4.9h-21.3
	c-0.9,0-1.6,0.7-1.6,1.6s0.7,1.6,1.6,1.6h21.3c1,0,1.8,0.8,1.8,1.8v13.3l0,0v7.5c0,1-0.8,1.8-1.8,1.8h-10.3c-0.7,0-1.4,0.3-1.9,0.8
	l-4.1,4.1l-4.1-4.1c-0.5-0.5-1.2-0.8-1.9-0.8h-10.3c-1,0-1.8-0.8-1.8-1.8V27.8c0-1,0.8-1.8,1.8-1.8h4.8c0.9,0,1.6-0.7,1.6-1.6
	s-0.7-1.6-1.6-1.6h-4.8c-2.7,0-4.9,2.2-4.9,4.9v20.8c0,2.7,2.2,4.9,4.9,4.9h10.1l4.3,4.3c0.5,0.5,1.2,0.8,1.9,0.8
	c0.7,0,1.4-0.3,1.9-0.8l4.3-4.3h1.4c-0.6,2.1-0.9,4.3-0.9,6.5c0,2.7,0.5,5.4,1.4,7.9h-39.7c-3.6,0-6.5,2.9-6.5,6.5V105
	c0,3.6,2.9,6.5,6.5,6.5h15l6.5,6.5c0.6,0.6,1.4,0.9,2.2,0.9c0.8,0,1.6-0.3,2.2-0.9l6.5-6.5h15c3.6,0,6.5-2.9,6.5-6.5V91.6
	c0-0.9-0.7-1.6-1.6-1.6s-1.6,0.7-1.6,1.6V105c0,1.8-1.5,3.3-3.3,3.3h-15c-0.8,0-1.6,0.3-2.2,0.9l-6.5,6.5l-6.5-6.5
	c-0.6-0.6-1.4-0.9-2.2-0.9h-15c-1.8,0-3.3-1.5-3.3-3.3V74.5c0-1.8,1.5-3.3,3.3-3.3h47.5c1.8,0,3.3,1.5,3.3,3.3v10.4
	c0,0.9,0.7,1.6,1.6,1.6s1.6-0.7,1.6-1.6V82c2.4,0.8,4.9,1.2,7.5,1.2C523,83.3,533.4,72.9,533.4,60.1z M510.3,80.1
	c-2.6,0-5.1-0.5-7.5-1.5v-4.2c0-3.6-2.9-6.5-6.5-6.5h-4.4c-1.1-2.5-1.6-5.1-1.6-7.9c0-2.3,0.4-4.4,1.1-6.5h5.4
	c2.7,0,4.9-2.2,4.9-4.9V42c2.7-1.3,5.6-1.9,8.6-1.9c11,0,20,9,20,20C530.2,71.1,521.3,80.1,510.3,80.1z M545.5,86h-27.3
	c-2.4,0-4.4,2-4.4,4.4v17.5c0,2.4,2,4.4,4.4,4.4h8.3l3.5,3.5c0.5,0.5,1.1,0.7,1.8,0.7c0.6,0,1.3-0.2,1.8-0.7l3.5-3.5h8.3
	c2.4,0,4.4-2,4.4-4.4V90.4C549.9,88,547.9,86,545.5,86z M546.7,107.9c0,0.7-0.6,1.2-1.2,1.2h-8.6c-0.7,0-1.3,0.3-1.8,0.7l-3.2,3.2
	l-3.2-3.2c-0.5-0.5-1.1-0.7-1.8-0.7h-8.6c-0.7,0-1.2-0.6-1.2-1.2V90.4c0-0.7,0.6-1.2,1.2-1.2h27.3c0.7,0,1.2,0.6,1.2,1.2v17.5H546.7
	z M475.6,89.7l0.6-0.5l0.9-0.8c0.2-0.2,0.5-0.5,0.8-0.9s0.6-0.9,0.8-1.2s0.4-0.8,0.5-1.3c0.2-0.5,0.3-1.1,0.3-1.6c0-1.6-0.6-3-1.9-4
	c-1.2-1.1-2.9-1.6-5-1.6c-1.9,0-3.3,0.4-4.4,1.3c-1.1,0.8-1.7,1.7-1.7,2.7c0,0.5,0.2,0.9,0.5,1.2c0.3,0.3,0.7,0.4,1.1,0.4
	c0.3,0,0.6-0.1,0.9-0.3c0.3-0.2,0.5-0.5,0.6-0.7c0.2-0.3,0.5-0.5,1-0.7s1.1-0.3,1.8-0.3c1,0,1.9,0.2,2.5,0.7s0.9,1.2,0.9,2.1
	c0,0.5-0.1,1-0.4,1.5s-0.5,0.9-0.8,1.1c-0.3,0.3-0.6,0.6-1.1,1l-1,0.8c-1.3,1.2-2,2.9-2,5.2c0,0.7,0.1,1.2,0.3,1.4
	c0.2,0.3,0.6,0.4,1.2,0.4c1.1,0,1.7-0.4,1.7-1.2c0-1.1,0.1-2,0.3-2.6C474.4,90.9,474.8,90.3,475.6,89.7z M472.3,97.7
	c-0.6,0-1.1,0.2-1.5,0.7c-0.4,0.4-0.6,1-0.6,1.6s0.2,1.1,0.6,1.6s0.9,0.7,1.5,0.7s1.2-0.2,1.6-0.7s0.7-1,0.7-1.6s-0.2-1.2-0.7-1.6
	C473.5,97.9,472.9,97.7,472.3,97.7z M508.6,62.6c0,0.8,0.6,1.3,1.7,1.3c0.4,0,0.8-0.1,1.2-0.3c0.4-0.2,0.5-0.5,0.5-0.9
	c0-1.5,0.1-3.9,0.2-7.3c0.2-3.4,0.2-5.8,0.2-7.3c0-0.6-0.2-1-0.6-1.3s-0.9-0.5-1.5-0.5s-1.1,0.2-1.5,0.5s-0.6,0.8-0.6,1.3
	c0,1.5,0.1,3.9,0.2,7.3C508.6,58.7,508.6,61.1,508.6,62.6z M510.3,66.2c-0.7,0-1.2,0.2-1.7,0.7c-0.4,0.4-0.7,1-0.7,1.6
	s0.2,1.2,0.7,1.6c0.4,0.4,1,0.7,1.7,0.7c0.6,0,1.2-0.2,1.6-0.7c0.5-0.5,0.7-1,0.7-1.6s-0.2-1.2-0.7-1.6
	C511.5,66.5,511,66.2,510.3,66.2z M492.8,29.5h-25c-0.9,0-1.6,0.7-1.6,1.6s0.7,1.6,1.6,1.6h25c0.9,0,1.6-0.7,1.6-1.6
	S493.7,29.5,492.8,29.5z M494.4,37.5c0-0.9-0.7-1.6-1.6-1.6h-25c-0.9,0-1.6,0.7-1.6,1.6c0,0.9,0.7,1.6,1.6,1.6h25
	C493.7,39,494.4,38.3,494.4,37.5z M467.8,42.2c-0.9,0-1.6,0.7-1.6,1.6c0,0.9,0.7,1.6,1.6,1.6h12.7c0.9,0,1.6-0.7,1.6-1.6
	c0-0.9-0.7-1.6-1.6-1.6H467.8z M524.4,97.6c-0.9,0-1.7,0.7-1.7,1.7s0.7,1.7,1.7,1.7c0.9,0,1.7-0.7,1.7-1.7S525.3,97.6,524.4,97.6z
	 M531.4,97.6c-0.9,0-1.7,0.7-1.7,1.7s0.7,1.7,1.7,1.7c0.9,0,1.7-0.7,1.7-1.7S532.4,97.6,531.4,97.6z M538.6,97.6
	c-0.9,0-1.7,0.7-1.7,1.7s0.7,1.7,1.7,1.7c0.9,0,1.7-0.7,1.7-1.7S539.5,97.6,538.6,97.6z"/>
<g>
	<g>
		<path class="st0" d="M137.2,86.7h-2.3V68.3c0-0.3-0.1-0.6-0.3-0.9l-6.8-8.9c0.7-0.9,1-1.9,1-3.1c0-2.8-2.3-5.1-5.1-5.1
			s-5.1,2.3-5.1,5.1s2.3,5.1,5.1,5.1c0.7,0,1.3-0.1,1.8-0.3l6.5,8.5v17.9h-6.7v-4.1c0-0.8-0.6-1.4-1.4-1.4s-1.4,0.6-1.4,1.4v4.1
			h-6.1v-11c0-0.8-0.6-1.4-1.4-1.4s-1.4,0.6-1.4,1.4v11h-8.5l-2.4-14.3l0.7-1c0.6,0.4,1.2,0.7,2.1,0.5c0.6-0.2,1.2-0.6,1.5-1.2
			l3.4-6.9l7.8,3c0.2,0.1,4.4,2,4.4,6.8V76c0,0.8,0.6,1.4,1.4,1.4s1.4-0.6,1.4-1.4v-2.4c0-6.8-5.9-9.3-6.1-9.4l0,0L106,59v-2.8
			c2.1-1.7,3.5-4.1,4-6.8c1-0.1,2-0.5,2.8-1.2c1.1-1,1.8-2.4,1.8-3.8c0-1.2-0.4-2.3-1.2-3.2v-4.1c0-7.8-6.4-14.2-14.2-14.2
			S85,29.3,85,37.1v4.2c-0.8,0.9-1.2,2-1.2,3.1c0,1.5,0.6,2.9,1.8,3.8c0.8,0.7,1.8,1.1,2.8,1.2c0.4,2.7,1.9,5.2,4.2,7V59l-13.2,5.1
			l0,0c-0.2,0.1-6.1,2.6-6.1,9.4v13.1h-6.7V68.8l6.5-8.5c0.6,0.2,1.2,0.3,1.8,0.3c2.8,0,5.1-2.3,5.1-5.1s-2.3-5.1-5.1-5.1
			s-5.1,2.3-5.1,5.1c0,1.2,0.4,2.2,1,3.1L64,67.5c-0.2,0.2-0.3,0.5-0.3,0.9v18.3h-2.3c-1.7,0-3.1,1.4-3.1,3.1v7.3
			c0,1.7,1.4,3.1,3.1,3.1V116c0,1.6,1.3,2.9,2.9,2.9h31.8c0.8,0,1.4-0.6,1.4-1.4s-0.6-1.4-1.4-1.4h-32c-0.1,0-0.1-0.1-0.1-0.1v-15.8
			h70.4V116c0,0.1-0.1,0.1-0.1,0.1h-31.8c-0.8,0-1.4,0.6-1.4,1.4s0.6,1.4,1.4,1.4h31.8c1.6,0,2.9-1.3,2.9-2.9v-15.8
			c1.7,0,3.1-1.4,3.1-3.1v-7.3C140.4,88.1,139,86.7,137.2,86.7z M123.8,57.8c-1.3,0-2.3-1-2.3-2.3s1-2.3,2.3-2.3s2.3,1,2.3,2.3
			C126.1,56.8,125,57.8,123.8,57.8z M74.7,53.2c1.3,0,2.3,1,2.3,2.3s-1,2.3-2.3,2.3s-2.3-1-2.3-2.3C72.3,54.2,73.4,53.2,74.7,53.2z
			 M107.7,62.7l-3,6.1c0,0-0.9-0.6-3.5-2.5c2.4-3,2.5-3.1,3.8-4.6L107.7,62.7z M99.2,68.3l1.9,1.3l-0.6,0.9H98l-0.6-0.9L99.2,68.3z
			 M95.3,59.5v-1.6c1.3,0.5,2.7,0.7,4,0.7c1.4,0,2.7-0.3,3.9-0.7v1.7l-3.9,4.9L95.3,59.5z M98.4,73.4h1.6l2.2,13.3h-6.1L98.4,73.4z
			 M111.7,44.4c0,0.7-0.3,1.3-0.8,1.7c-0.2,0.2-0.5,0.4-0.8,0.5v-4.3C111,42.5,111.7,43.4,111.7,44.4z M88.1,46.5
			c-0.3-0.1-0.6-0.2-0.8-0.5c-0.5-0.4-0.8-1-0.8-1.7s0.4-1.2,0.7-1.5l0,0c0.3-0.2,0.6-0.4,0.9-0.5C88.1,42.3,88.1,46.5,88.1,46.5z
			 M88.9,38.4c-0.3,0.3-0.5,0.6-0.6,0.9c-0.2,0-0.4,0.1-0.6,0.1V37l0,0c0-6.3,5.1-11.4,11.4-11.4s11.4,5.1,11.4,11.4v2.3
			c-0.1,0-0.3-0.1-0.5-0.1c0-0.5-0.1-0.8-0.6-1.4c-0.4-0.5-1.2-1.3-3-3.3c-0.7-0.8-2-1-2.9-0.4c-3.8,2.5-8.5,3.8-12.9,3.5
			C90,37.8,89.3,38,88.9,38.4z M91,47.8v-7v-0.1c2.6,0.1,5.4-0.3,7.9-1.1c2-0.6,4-1.5,5.8-2.7c0.5,0.6,0.9,1,1.3,1.4
			c0,0,0,0,0.1,0.1s0.2,0.3,0.4,0.4c0.4,0.4,0.7,0.7,0.8,0.9v8.1c0,4.4-3.6,8-8,8C94.4,55.8,91,52,91,47.8z M93.4,61.7l3.8,4.6
			c-1.6,1.2-3.3,2.3-3.5,2.5l-3-6.1L93.4,61.7z M75.9,73.6L75.9,73.6c0-4.9,4.1-6.7,4.4-6.8l7.8-3l3.4,6.9l0,0
			c0.4,0.8,1.2,1.2,2,1.2s1.2-0.4,1.5-0.6l0.7,1l-2.4,14.3h-8.5v-11c0-0.8-0.6-1.4-1.4-1.4S82,74.8,82,75.6v11h-6.1V73.6L75.9,73.6z
			 M137.5,97.1c0,0.2-0.1,0.3-0.3,0.3c-2,0-74.4,0-76.1,0c-0.2,0-0.3-0.1-0.3-0.3v-7.3c0-0.2,0.1-0.3,0.3-0.3c2.5,0,74.2,0,76.1,0
			c0.2,0,0.3,0.1,0.3,0.3V97.1z"/>
	</g>
</g>
<path class="st0" d="M336.9,101.3c1.5-1.4,2.5-3.4,2.5-5.7v-3.1c0-4.3-3.5-7.7-7.7-7.7c-3.7,0-6.9,2.7-7.6,6.2H319
	c-0.6-1.8-2.3-3.1-4.4-3.1c-2,0-3.7,1.3-4.4,3.1h-5.1c-0.6-3-3-5.4-6-6v-3.5c2.7-0.7,4.6-3.1,4.6-6h1.5c0.9,0,1.5-0.7,1.5-1.5v-4.6
	h3.1v-3.1h-3.1l0,0c0-3,1.4-5.9,3.9-8c4.4-3.8,7-9.4,7-15.2c0-5.5-2.2-10.7-6.2-14.5s-9.3-5.8-14.8-5.6
	c-10.5,0.4-19.1,9.3-19.3,19.7c-0.1,5.9,2.4,11.6,6.9,15.5c2.5,2.2,3.9,5.1,4,8.1h-3.1v3.1h3.1V74c0,0.9,0.7,1.5,1.5,1.5h1.5
	c0,2.9,2,5.3,4.6,6V85c-3,0.6-5.4,3-6,6H285c-0.6-1.8-2.3-3.1-4.4-3.1c-2,0-3.7,1.3-4.4,3.1h-5.1c-0.7-3.5-3.8-6.2-7.6-6.2
	c-4.3,0-7.7,3.5-7.7,7.7v3.1c0,2.2,1,4.3,2.5,5.7c-5.1,2.1-8.7,7.1-8.7,12.9v3.1c0,0.9,0.7,1.5,1.5,1.5H276c0.9,0,1.5-0.7,1.5-1.5
	v-3.1c0-5.8-3.6-10.8-8.7-12.9c1.5-1.4,2.5-3.4,2.5-5.7v-1.5h4.9c0.6,1.8,2.3,3.1,4.4,3.1c2,0,3.7-1.3,4.4-3.1h4.9v1.5
	c0,2.2,1,4.3,2.5,5.7c-5.1,2.1-8.7,7.1-8.7,12.9v3.1c0,0.9,0.7,1.5,1.5,1.5H310c0.9,0,1.5-0.7,1.5-1.5v-3.1c0-5.8-3.6-10.8-8.7-12.9
	c1.5-1.4,2.5-3.4,2.5-5.7v-1.5h4.9c0.6,1.8,2.3,3.1,4.4,3.1c2,0,3.7-1.3,4.4-3.1h4.9v1.5c0,2.2,1,4.3,2.5,5.7
	c-5.1,2.1-8.7,7.1-8.7,12.9v3.1c0,0.9,0.7,1.5,1.5,1.5H344c0.9,0,1.5-0.7,1.5-1.5v-3.1C345.6,108.4,342,103.4,336.9,101.3z
	 M258.9,92.5c0-2.6,2.1-4.6,4.6-4.6c2.6,0,4.6,2.1,4.6,4.6v3.1c0,2.6-2.1,4.6-4.6,4.6c-2.6,0-4.6-2.1-4.6-4.6V92.5z M274.4,114.2
	v1.5h-3.1v-3.1h-3.1v3.1h-9.3v-3.1h-3.1v3.1h-3.1v-1.5c0-6,4.9-10.8,10.8-10.8C269.5,103.4,274.4,108.2,274.4,114.2z M280.6,94.1
	c-0.9,0-1.5-0.7-1.5-1.5c0-0.9,0.7-1.5,1.5-1.5c0.9,0,1.5,0.7,1.5,1.5C282.2,93.4,281.5,94.1,280.6,94.1z M291.4,66.2
	c-0.1-3.9-1.9-7.7-5-10.4c-3.8-3.3-5.9-8.1-5.8-13.1c0.2-8.9,7.5-16.3,16.3-16.7c4.7-0.2,9.1,1.5,12.5,4.7s5.2,7.6,5.2,12.3
	c0,4.9-2.2,9.6-5.9,12.9c-3.1,2.7-4.9,6.5-4.9,10.3l0,0H291.4z M291.4,72.4v-3.1h12.4v3.1H291.4z M294.5,75.5h6.2
	c0,1.7-1.4,3.1-3.1,3.1S294.5,77.2,294.5,75.5z M293,92.5c0-2.6,2.1-4.6,4.6-4.6c2.6,0,4.6,2.1,4.6,4.6v3.1c0,2.6-2.1,4.6-4.6,4.6
	c-2.6,0-4.6-2.1-4.6-4.6V92.5z M308.5,114.2v1.5h-3.1v-3.1h-3.1v3.1H293v-3.1h-3.1v3.1h-3.1v-1.5c0-6,4.9-10.8,10.8-10.8
	C303.6,103.4,308.5,108.2,308.5,114.2z M314.7,94.1c-0.9,0-1.5-0.7-1.5-1.5c0-0.9,0.7-1.5,1.5-1.5c0.9,0,1.5,0.7,1.5,1.5
	S315.5,94.1,314.7,94.1z M327.1,92.5c0-2.6,2.1-4.6,4.6-4.6c2.6,0,4.6,2.1,4.6,4.6v3.1c0,2.6-2.1,4.6-4.6,4.6
	c-2.6,0-4.6-2.1-4.6-4.6V92.5z M342.5,115.8h-3.1v-3.1h-3.1v3.1H327v-3.1h-3v3.1h-3.1v-1.5c0-6,4.9-10.8,10.8-10.8
	c6,0,10.8,4.9,10.8,10.8L342.5,115.8L342.5,115.8z M294.5,63.1h6.2V60h-6.2V63.1z M306.5,49.6l-2.4-2.4c0.5-0.8,0.9-1.7,1.1-2.7h3.3
	v-3.1h-3.3c-0.2-1-0.6-1.9-1.1-2.7l2.4-2.4l-2.2-2.2l-2.4,2.4c-0.8-0.5-1.7-0.9-2.7-1.1v-3.3h-3.1v3.3c-1,0.2-1.9,0.6-2.7,1.1
	l-2.4-2.4l-2.2,2.2l2.4,2.4c-0.5,0.8-0.9,1.7-1.1,2.7h-3.3v3.1h3.3c0.2,1,0.6,1.9,1.1,2.7l-2.4,2.4l2.2,2.2l2.4-2.4
	c0.8,0.5,1.7,0.9,2.7,1.1v3.3h3.1v-3.3c1-0.2,1.9-0.6,2.7-1.1l2.4,2.4L306.5,49.6z M297.6,47.6c-2.6,0-4.6-2.1-4.6-4.6
	s2.1-4.6,4.6-4.6c2.6,0,4.6,2.1,4.6,4.6S300.2,47.6,297.6,47.6z"/>
<path class="st0" d="M522.8,176.2c1.1,0.3,2.1-0.3,2.4-1.4l2.1-7.7c0.3-1.1-0.3-2.1-1.4-2.4c-1.1-0.3-2.1,0.3-2.4,1.4l-2.1,7.7
	C521.1,174.8,521.7,175.9,522.8,176.2z M473.2,223c-0.5-0.9-1.8-1.3-2.7-0.7c-0.9,0.5-1.3,1.8-0.7,2.7c0.5,0.9,1.8,1.3,2.7,0.7
	C473.4,225.1,473.7,223.9,473.2,223z M463.6,226.2l-3.4,2c-0.9,0.5-2.2,0.2-2.7-0.7s-1.8-1.3-2.7-0.7s-1.3,1.8-0.7,2.7
	c1.6,2.8,5.3,3.8,8.1,2.2l3.4-2c0.9-0.5,1.3-1.8,0.7-2.7C465.8,226,464.6,225.7,463.6,226.2z M546.5,174c-0.5-1-1.7-1.3-2.7-0.8
	l-11,6.1c-1,0.5-1.3,1.7-0.8,2.7s1.7,1.3,2.7,0.8l11-6.1C546.7,176.2,547.1,175,546.5,174z M542.7,193.8l-7.7-2.1
	c-1.1-0.3-2.1,0.3-2.4,1.4c-0.3,1.1,0.3,2.1,1.4,2.4l7.7,2.1c1.1,0.3,2.1-0.4,2.4-1.4C544.4,195.2,543.7,194.1,542.7,193.8z
	 M521.6,200.5l4.2-6.4c0.4-0.6,0.4-1.4,0.1-2.1l-4-6.9c-0.4-0.7-1.1-1-1.8-1l-7.6,0.5l-7.3-12.7c-1.1-1.8-3-2.9-5.1-3H500
	c-2,0-3.9,1-5,2.7l-25.9,33l-16.8,9.7c-6.6,3.8-8.9,12.3-5.1,18.9c3.5,6.1,10.9,8.5,17.2,5.9l10,17.3c2.2,3.7,7,5.1,10.8,2.9
	s5.1-7,2.9-10.8l-5.9-10.3l5.1-3c0.9-0.5,1.3-1.8,0.7-2.7l-2.6-4.5c0.3-0.1,2.3-0.5,38-7.4c4.4-0.2,7-5.1,4.8-8.9L521.6,200.5z
	 M519.1,188.2l2.7,4.7l-2.4,3.7l-4.7-8.2L519.1,188.2z M464.2,235.1c-4.7,2.7-10.8,1.1-13.5-3.6c-0.9-1.5-1.3-3.2-1.3-4.9
	c0-3.5,1.9-6.8,5-8.6l15.4-8.9l9.9,17.2L464.2,235.1z M484.6,250.7c1.1,1.9,0.4,4.3-1.5,5.4s-4.3,0.4-5.4-1.5l-9.9-17.2l6.9-4
	C486.2,253.4,484.4,250.4,484.6,250.7z M480.1,235l-2-3.4l3.4-2l2,3.4L480.1,235z M483.3,224.6l-10.5-18.2l22.2-28.2l22.9,39.7
	L483.3,224.6z M523.1,216.9c-0.3,0-0.4,0.1-1.1,0.2l-24.4-42.2c0.5-0.7,0.6-0.7,0.7-0.9c0.5-0.9,1.4-1,1.7-1c0.3,0,1.2,0.1,1.7,1
	l23,39.9C525.5,215.2,524.6,216.8,523.1,216.9z"/>
<path class="st0" d="M152.3,222.2c0,0-0.3-0.8-0.4-1.1L138,187.5c-1.7-4.1-4.8-7.4-8.6-9.4l-1.3-3.2c-0.8-2.1-2.3-3.8-4.1-5
	c-1.8-1.2-4-1.9-6.2-1.9c-6.2,0-11.2,5-11.2,11.2v3.8c-2.5,3.2-4.1,7.2-4.1,11.5v1.2h-6.7v-1.2c0-4.4-1.5-8.4-4.1-11.5v-3.8
	c0-6.2-5-11.2-11.2-11.2c-2.2,0-4.4,0.7-6.2,1.9c-1.8,1.2-3.3,3-4.1,5l-1.3,3.2c-3.8,2-6.9,5.2-8.6,9.4l-3.6,8.6
	c-0.3,0.8,0.1,1.8,0.9,2.1s1.8-0.1,2.1-0.9l3.6-8.6c2.4-5.7,7.9-9.4,14-9.4c8.4,0,15.2,6.8,15.2,15.2v24.3
	c-4.4-7.9-12.8-13.2-22.5-13.2c-6,0-11.6,2.1-16,5.6l3.5-8.5c0.3-0.8-0.1-1.8-0.9-2.1s-1.8,0.1-2.1,0.9l-8.1,19.7
	c-0.1,0.3-0.5,1.2-0.5,1.2c-1,2.8-1.6,5.8-1.6,9c0,14.2,11.5,25.7,25.7,25.7s25.7-11.5,25.7-25.7v-1h6.7v1
	c0,14.2,11.5,25.7,25.7,25.7s25.7-11.5,25.7-25.7C154,228.2,153.4,225.1,152.3,222.2z M88.5,179.9c-3.1-2.3-6.9-3.7-11.1-3.7
	c-1.5,0-2.9,0.2-4.3,0.5l0.2-0.4c0.6-1.5,1.6-2.7,2.9-3.6c1.3-0.9,2.8-1.3,4.4-1.3c4.4,0,7.9,3.6,7.9,7.9V179.9z M70.1,253.8
	c-12.4,0-22.5-10.1-22.5-22.5s10.1-22.5,22.5-22.5s22.5,10.1,22.5,22.5C92.6,243.8,82.5,253.8,70.1,253.8z M109.9,179.3
	c0-4.4,3.6-7.9,7.9-7.9c1.6,0,3.1,0.5,4.4,1.3c1.3,0.9,2.3,2.1,2.9,3.6l0.2,0.4c-1.4-0.3-2.8-0.5-4.3-0.5c-4.2,0-8,1.4-11.1,3.7
	V179.3z M105.8,194.6c0-8.4,6.8-15.2,15.2-15.2c6.2,0,11.7,3.7,14,9.4l9.3,22.4c-4.4-3.5-10-5.6-16-5.6c-9.6,0-18.1,5.3-22.5,13.2
	V194.6z M102.6,227.1h-6.7V218h6.7V227.1z M102.6,214.7h-6.7v-15.6h6.7V214.7z M128.3,253.8c-12.4,0-22.5-10.1-22.5-22.5
	s10.1-22.5,22.5-22.5s22.5,10.1,22.5,22.5C150.8,243.8,140.7,253.8,128.3,253.8z M140.9,219.8c-0.7,0.5-0.9,1.6-0.3,2.3
	c1.3,1.7,2.1,3.5,2.6,5.5c-0.8,3.2-2.7,6.1-5.3,8.2c-2.7,2.2-6.2,3.4-9.7,3.4s-7-1.2-9.7-3.4c-2.6-2.1-4.5-5-5.3-8.2
	c1.7-6.7,7.7-11.7,14.9-11.7c3.1,0,6.1,0.9,8.6,2.6c0.7,0.5,1.8,0.3,2.3-0.4s0.3-1.8-0.4-2.3c-3.1-2.1-6.7-3.2-10.4-3.2
	c-10.3,0-18.7,8.4-18.7,18.7s8.4,18.7,18.7,18.7s18.7-8.4,18.7-18.7c0-4.1-1.3-8-3.7-11.2C142.7,219.4,141.7,219.3,140.9,219.8z
	 M128.3,246.8c-7.2,0-13.3-5-15-11.8c0.9,1.2,2,2.4,3.2,3.4c3.3,2.7,7.5,4.2,11.7,4.2c4.3,0,8.4-1.5,11.7-4.2c1.2-1,2.3-2.1,3.2-3.4
	C141.6,241.7,135.5,246.8,128.3,246.8z M70.1,212.7c-10.3,0-18.7,8.4-18.7,18.7s8.4,18.7,18.7,18.7s18.7-8.4,18.7-18.7
	C88.8,221.1,80.4,212.7,70.1,212.7z M70.1,246.8c-7.2,0-13.3-5-15-11.8c0.9,1.3,2,2.4,3.2,3.4c3.3,2.7,7.5,4.2,11.7,4.2
	c4.3,0,8.4-1.5,11.7-4.2c1.2-1,2.3-2.1,3.2-3.4C83.5,241.7,77.4,246.8,70.1,246.8z M79.8,235.8c-2.7,2.2-6.2,3.4-9.7,3.4
	s-7-1.2-9.7-3.4c-2.6-2.1-4.5-5-5.3-8.2c1.7-6.7,7.7-11.7,14.9-11.7s13.3,5,14.9,11.7C84.3,230.8,82.4,233.7,79.8,235.8z"/>
<g>
	<circle class="st0" cx="297.6" cy="246.3" r="1.9"/>
	<path class="st0" d="M328.4,189.7l-30-13.1c-0.5-0.2-1-0.2-1.5,0c-18.4,8-30,13.1-30,13.1s-1.1,0.5-1.1,1.7V203
		c-2.2,0.8-3.8,2.9-3.8,5.3v7.5c0,1,0.8,1.9,1.9,1.9h7.5c1,0,1.9-0.8,1.9-1.9v-7.5c0-2.4-1.6-4.5-3.8-5.3v-8.7l11.2,4.9V212
		c0,0.7,0.4,1.4,1.1,1.7c0.4,0.2,8.9,3.9,15.8,3.9s15.4-3.8,15.8-3.9c0.7-0.3,1.1-1,1.1-1.7v-12.8l13.9-6.1c0.7-0.3,1.1-1,1.1-1.7
		S329.1,190,328.4,189.7L328.4,189.7z M269.5,213.9h-3.8v-5.6c0-1,0.8-1.9,1.9-1.9s1.9,0.8,1.9,1.9V213.9z M310.8,210.8
		c-2.4,1-8.4,3.1-13.1,3.1s-10.7-2.2-13.1-3.1v-9.9l12.4,5.4c0.5,0.2,1,0.2,1.5,0l12.4-5.4L310.8,210.8L310.8,210.8z M297.6,202.5
		c-3.6-1.6-21.7-9.5-25.3-11.1l25.3-11.1l25.3,11.1C319.7,192.9,299.6,201.6,297.6,202.5L297.6,202.5z"/>
	<path class="st0" d="M336.3,202.7h-16.1c-1,0-1.9,0.8-1.9,1.9c0,1,0.8,1.9,1.9,1.9h16.1c1,0,1.9-0.8,1.9-1.9
		C338.1,203.5,337.3,202.7,336.3,202.7z"/>
	<path class="st0" d="M336.3,210.2h-16.1c-1,0-1.9,0.8-1.9,1.9c0,1,0.8,1.9,1.9,1.9h16.1c1,0,1.9-0.8,1.9-1.9
		C338.1,211,337.3,210.2,336.3,210.2z"/>
	<circle class="st0" cx="297.6" cy="166.5" r="1.9"/>
	<path class="st0" d="M343.8,164.6h-37.7c-1,0-1.9,0.8-1.9,1.9c0,1,0.8,1.9,1.9,1.9h35.8v57.4h-88.5v-57.4h35.8c1,0,1.9-0.8,1.9-1.9
		c0-1-0.8-1.9-1.9-1.9h-37.7c-1,0-1.9,0.8-1.9,1.9v72.4c0,1,0.8,1.9,1.9,1.9h36.4l-3,16.1H279c-1,0-1.9,0.8-1.9,1.9
		c0,1,0.8,1.9,1.9,1.9h37.5c1,0,1.9-0.8,1.9-1.9c0-1-0.8-1.9-1.9-1.9h-5.9l-3-16.1H344c1,0,1.9-0.8,1.9-1.9v-72.4
		C345.6,165.4,344.8,164.6,343.8,164.6z M288.6,256.8l3-16.1h11.9l3,16.1H288.6z M341.9,237c-2,0-88.3,0-88.5,0v-7.5h88.5V237z"/>
</g>
<path class="st0" d="M340.8,310.6c-0.5-0.3-1.2-0.3-1.7,0l-31.5,18.6c-0.8,0.5-1.1,1.5-0.6,2.4c0.5,0.8,1.5,1.1,2.4,0.6l22.6-13.4
	l-42.1,43.7l-20.9-6.4l27.3-16.2c0.8-0.5,1.1-1.5,0.6-2.4c-0.5-0.8-1.5-1.1-2.4-0.6L263.8,355c-0.6,0.3-0.9,1-0.8,1.7
	s0.6,1.2,1.2,1.4l25,7.6l11,20.1c0,0,0,0,0,0.1c0.2,0.3,0.5,0.6,0.8,0.7c0.2,0.1,0.4,0.1,0.7,0.1c0.4,0,0.9-0.2,1.2-0.5l12.7-12.4
	l23.8,7.3c0.2,0.1,0.3,0.1,0.5,0.1c0.4,0,0.7-0.1,1-0.3c0.4-0.3,0.7-0.8,0.7-1.4V312C341.6,311.4,341.3,310.9,340.8,310.6z
	 M300.3,366.9c-0.2,0.3-0.3,0.6-0.3,1v10.5l-7.5-13.7l33.3-34.6L300.3,366.9z M303.4,381v-10.8l8.4,2.6L303.4,381z M338.2,377.3
	L304.4,367l33.8-48.7V377.3z M281.9,370.1c-0.7-0.7-1.8-0.7-2.4,0l-16,16c-0.7,0.7-0.7,1.8,0,2.4c0.3,0.3,0.8,0.5,1.2,0.5
	c0.4,0,0.9-0.2,1.2-0.5l16-16C282.6,371.8,282.6,370.7,281.9,370.1z M258.1,391.4l-4,4c-0.7,0.7-0.7,1.8,0,2.4
	c0.3,0.3,0.8,0.5,1.2,0.5s0.9-0.2,1.2-0.5l4-4c0.7-0.7,0.7-1.8,0-2.4C259.9,390.8,258.8,390.8,258.1,391.4z M276.9,394.8
	c-0.5,0-0.9,0.2-1.2,0.5c-0.3,0.3-0.5,0.8-0.5,1.2c0,0.5,0.2,0.9,0.5,1.2c0.3,0.3,0.8,0.5,1.2,0.5c0.5,0,0.9-0.2,1.2-0.5
	c0.3-0.3,0.5-0.8,0.5-1.2c0-0.5-0.2-0.9-0.5-1.2C277.8,395,277.4,394.8,276.9,394.8z M288.5,382.5L280,391c-0.7,0.7-0.7,1.8,0,2.4
	c0.3,0.3,0.8,0.5,1.2,0.5s0.9-0.2,1.2-0.5l8.5-8.5c0.7-0.7,0.7-1.8,0-2.4C290.3,381.8,289.2,381.8,288.5,382.5z M317.8,381.8
	l-8.5,8.5c-0.7,0.7-0.7,1.8,0,2.4c0.3,0.3,0.8,0.5,1.2,0.5s0.9-0.2,1.2-0.5l8.5-8.5c0.7-0.7,0.7-1.8,0-2.4
	C319.6,381.2,318.5,381.2,317.8,381.8z M301.1,336.7c0.5,0,0.9-0.2,1.2-0.5c0.3-0.3,0.5-0.8,0.5-1.2c0-0.5-0.2-0.9-0.5-1.2
	c-0.3-0.3-0.8-0.5-1.2-0.5c-0.5,0-0.9,0.2-1.2,0.5c-0.3,0.3-0.5,0.8-0.5,1.2c0,0.5,0.2,0.9,0.5,1.2
	C300.3,336.5,300.7,336.7,301.1,336.7z"/>
<path class="st0" d="M128,344.7c10.6,0,19.2-8.6,19.2-19.2s-8.6-19.2-19.2-19.2c-7.7,0-14.3,4.6-17.4,11.1l-5.1-1.9
	c0.1-0.4,0.1-0.8,0.1-1.2c0-4.4-3.6-8-8-8s-8,3.6-8,8s3.6,8,8,8c2.9,0,5.4-1.5,6.8-3.8l5.1,1.9c-0.5,1.6-0.7,3.3-0.7,5.1
	c0,2.1,0.3,4.1,1,6L92.2,339c-3.2-6.1-9.6-10.3-17-10.3c-2.4,0-4.7,0.5-6.8,1.3l-4.4-9.3c1.9-1.5,3.2-3.8,3.2-6.4c0-4.4-3.6-8-8-8
	s-8,3.6-8,8s3.6,8,8,8c0.7,0,1.3-0.1,1.9-0.3l4.4,9.3c-5.7,3.3-9.5,9.5-9.5,16.6c0,6.6,3.4,12.5,8.5,15.9l-2.9,5.3
	c-0.8-0.2-1.6-0.4-2.4-0.4c-4.4,0-8,3.6-8,8s3.6,8,8,8s8-3.6,8-8c0-2.4-1.1-4.6-2.8-6l2.9-5.3c2.4,1.1,5.1,1.7,7.9,1.7
	c4.4,0,8.4-1.5,11.7-4l6.3,6.9c-3.2,3.4-5.2,8-5.2,13.1c0,1,0.1,1.9,0.2,2.9l-7.4,1.8c-1.3-2.7-4-4.6-7.2-4.6c-4.4,0-8,3.6-8,8
	s3.6,8,8,8s8-3.6,8-8c0-0.1,0-0.2,0-0.3l7.4-1.8c2.5,7.7,9.7,13.2,18.2,13.2c10.6,0,19.2-8.6,19.2-19.2c0-3.3-0.8-6.4-2.3-9.1
	l9.4-6.1c1.5,1.5,3.5,2.4,5.7,2.4c4.4,0,8-3.6,8-8s-3.6-8-8-8s-8,3.6-8,8c0,1,0.2,2,0.6,2.9l-9.4,6.1c-1.9-2.4-4.3-4.4-7.2-5.7
	L123,344C124.6,344.5,126.3,344.7,128,344.7z M97.6,319.1c-2.6,0-4.8-2.2-4.8-4.8c0-2.6,2.2-4.8,4.8-4.8c2.6,0,4.8,2.2,4.8,4.8
	C102.4,317,100.3,319.1,97.6,319.1z M54.4,314.3c0-2.6,2.2-4.8,4.8-4.8s4.8,2.2,4.8,4.8c0,2.6-2.2,4.8-4.8,4.8
	C56.6,319.1,54.4,317,54.4,314.3z M59.2,381.5c-2.6,0-4.8-2.2-4.8-4.8s2.2-4.8,4.8-4.8s4.8,2.2,4.8,4.8S61.9,381.5,59.2,381.5z
	 M73.6,395.9c-2.6,0-4.8-2.2-4.8-4.8s2.2-4.8,4.8-4.8c2.6,0,4.8,2.2,4.8,4.8S76.3,395.9,73.6,395.9z M139.2,357.5
	c2.6,0,4.8,2.2,4.8,4.8c0,2.6-2.2,4.8-4.8,4.8s-4.8-2.2-4.8-4.8S136.6,357.5,139.2,357.5z M118.6,338.4c0.7-3.7,4-6.5,7.8-6.5h3.2
	c3.8,0,7.1,2.8,7.8,6.5c-2.6,1.9-5.9,3.1-9.4,3.1C124.5,341.5,121.2,340.4,118.6,338.4z M128,328.7c-2.6,0-4.8-2.2-4.8-4.8
	c0-2.6,2.2-4.8,4.8-4.8s4.8,2.2,4.8,4.8C132.8,326.6,130.7,328.7,128,328.7z M128,309.5c8.8,0,16,7.2,16,16c0,4-1.5,7.7-3.9,10.5
	c-1.1-3-3.5-5.3-6.4-6.5c1.4-1.4,2.3-3.4,2.3-5.6c0-4.4-3.6-8-8-8c-4.4,0-8,3.6-8,8c0,2.2,0.9,4.1,2.3,5.6c-2.9,1.2-5.2,3.5-6.4,6.5
	c-2.4-2.8-3.9-6.5-3.9-10.5C112,316.7,119.2,309.5,128,309.5z M59.2,347.9c0-8.8,7.2-16,16-16s16,7.2,16,16c0,4-1.5,7.7-3.9,10.5
	c-1.1-3-3.5-5.3-6.4-6.5c1.4-1.4,2.3-3.4,2.3-5.6c0-4.4-3.6-8-8-8s-8,3.6-8,8c0,2.2,0.9,4.1,2.3,5.6c-2.9,1.2-5.2,3.5-6.4,6.4
	C60.7,355.6,59.2,351.9,59.2,347.9z M70.4,346.3c0-2.6,2.2-4.8,4.8-4.8c2.6,0,4.8,2.2,4.8,4.8c0,2.6-2.2,4.8-4.8,4.8
	C72.5,351.1,70.4,349,70.4,346.3z M65.8,360.8c0.7-3.7,4-6.5,7.8-6.5h3.2c3.9,0,7.1,2.8,7.8,6.5c-2.6,1.9-5.9,3.1-9.4,3.1
	C71.7,363.9,68.4,362.8,65.8,360.8z M97.8,396c0.7-3.7,4-6.5,7.8-6.5h3.2c3.9,0,7.1,2.8,7.8,6.5c-2.6,1.9-5.9,3.1-9.4,3.1
	C103.7,399.1,100.4,398,97.8,396z M107.2,386.3c-2.6,0-4.8-2.2-4.8-4.8s2.2-4.8,4.8-4.8c2.6,0,4.8,2.2,4.8,4.8
	S109.8,386.3,107.2,386.3z M123.2,383.1c0,4-1.5,7.7-3.9,10.5c-1.1-3-3.5-5.3-6.4-6.5c1.4-1.4,2.3-3.4,2.3-5.6c0-4.4-3.6-8-8-8
	s-8,3.6-8,8c0,2.2,0.9,4.1,2.3,5.6c-2.9,1.2-5.2,3.5-6.4,6.4c-2.4-2.8-3.9-6.4-3.9-10.4c0-8.8,7.2-16,16-16S123.2,374.3,123.2,383.1
	z M112.2,364.6c-1.6-0.4-3.3-0.7-5-0.7c-4.4,0-8.4,1.5-11.7,4l-6.3-6.9c3.2-3.4,5.2-8,5.2-13.1c0-2.1-0.3-4.1-1-6l17.6-7.5
	c2,3.7,5.1,6.7,9,8.5L112.2,364.6z"/>
<path class="st0" d="M532.9,370.6l-8.3-9.9V311c0-4.8-3.9-8.7-8.7-8.7h-48.5c-4.8,0-8.7,3.9-8.7,8.7v72.8c0,4.8,3.9,8.7,8.7,8.7
	h38.1v1.7c0,0.5,0.2,0.9,0.5,1.2l6.4,6.4v2.7c0,1,0.8,1.7,1.7,1.7h17.3c1,0,1.7-0.8,1.7-1.7v-32.9
	C533.3,371.3,533.2,370.9,532.9,370.6z M462.3,311c0-2.9,2.3-5.2,5.2-5.2H516c2.9,0,5.2,2.3,5.2,5.2v3.5h-58.9L462.3,311L462.3,311z
	 M505.6,389h-38.1c-2.9,0-5.2-2.3-5.2-5.2v-3.5h43.3L505.6,389L505.6,389z M505.6,363.9v13h-43.3V318h58.9v59.9l-3.5-3.5v-10.5
	c0-3.3-2.7-6.1-6.1-6.1C508.3,357.8,505.6,360.5,505.6,363.9z M529.9,402.9H516v-1.7c0-0.5-0.2-0.9-0.5-1.2l-6.4-6.4V364
	c0-1.4,1.2-2.6,2.6-2.6c1.4,0,2.6,1.2,2.6,2.6v11.3c0,0.5,0.2,0.9,0.5,1.2l6.9,6.9c0.5,0.5,1.2,0.6,1.9,0.4c0.6-0.3,1.1-0.9,1.1-1.6
	v-16l5.2,6.2V402.9z M465.7,373.4h3.5v-3.5h-3.5V373.4z M479.6,373.4h3.5v-3.5h-3.5V373.4z M517.7,335.3c0-0.7-0.5-1.4-1.2-1.6
	l-24.3-8.7c-0.4-0.1-0.8-0.1-1.2,0l-24.3,8.7c-0.7,0.2-1.1,0.9-1.1,1.6s0.5,1.4,1.2,1.6l0.6,0.2v17.2h3.5v-16l5.2,1.9v12.4
	c0,0.7,0.4,1.4,1.1,1.6l13.9,5.2c0.2,0.1,0.4,0.1,0.6,0.1s0.4,0,0.6-0.1l13.9-5.2c0.7-0.3,1.1-0.9,1.1-1.6v-12.4l9.2-3.3
	C517.3,336.7,517.7,336,517.7,335.3z M503.9,351.4l-12.1,4.5l-12.1-4.5v-10l11.6,4.1c0.2,0.1,0.4,0.1,0.6,0.1s0.4,0,0.6-0.1
	l11.6-4.1v10H503.9z M491.7,342.1l-19.1-6.8l19.1-6.8l19.1,6.8L491.7,342.1z M472.7,373.4h3.5v-3.5h-3.5V373.4z"/>
<g>
	<g>
		<path class="st1" d="M97.8,496.7c-0.7-11.7-10.4-21.1-22.5-21.5v-2.3c0-0.5-0.4-0.8-0.8-0.8s-0.8,0.4-0.8,0.8v2.3
			c-12.1,0.4-21.9,9.7-22.6,21.5c0,0.4,0.2,0.7,0.6,0.9c0.4,0.1,0.8,0,1-0.4c1.2-1.9,3.3-3.2,5.8-3.2c2.7,0,5.1,1.6,6.1,3.9
			c0.1,0.3,0.4,0.5,0.8,0.5c0.3,0,0.6-0.2,0.8-0.5c1.3-2.9,4.2-5,7.6-5.3v3.8v17.8c0,1.2-0.5,2.2-1.2,3c-0.8,0.8-1.8,1.2-3,1.2
			s-2.2-0.5-3-1.2c-0.8-0.8-1.2-1.8-1.2-3c0-0.5-0.4-0.8-0.8-0.8c-0.5,0-0.8,0.4-0.8,0.8c0,3.3,2.7,5.9,5.9,5.9
			c3.3,0,5.9-2.7,5.9-5.9v-17.8v-3.7c3.4,0.3,6.2,2.4,7.5,5.3c0.1,0.3,0.4,0.5,0.8,0.5c0.3,0,0.6-0.2,0.8-0.5c1-2.3,3.4-3.9,6.1-3.9
			c2.5,0,4.6,1.3,5.8,3.2c0.2,0.3,0.6,0.5,1,0.4C97.6,497.4,97.8,497.1,97.8,496.7z M65.8,486c-0.7,2.6-1.2,5.6-1.3,8.9
			c-1.5-1.6-3.7-2.6-6.1-2.6c-2,0-3.9,0.7-5.3,1.9c1.6-8.5,8.4-15.2,17-16.9c-0.3,0.4-0.7,0.7-1,1.2C67.7,480.3,66.6,482.9,65.8,486
			z M74.4,490.8c-3.3,0-6.2,1.4-8.2,3.7c0.3-4.8,1.3-9.1,2.7-12.2c0.8-1.8,1.7-3.2,2.7-4.1c0.5-0.5,1-0.8,1.4-1
			c0.5-0.2,0.9-0.3,1.4-0.3s1,0.1,1.4,0.3c0.8,0.4,1.7,1.1,2.5,2.3c1.2,1.7,2.3,4.1,3,7c0.6,2.4,1.1,5.1,1.3,8.1
			C80.6,492.2,77.7,490.8,74.4,490.8z M90.5,492.3c-2.4,0-4.6,1-6.1,2.6c-0.3-5.2-1.3-9.8-2.9-13.3c-0.8-1.8-1.7-3.2-2.8-4.3
			c8.7,1.7,15.4,8.4,17,16.9C94.3,493,92.5,492.3,90.5,492.3z"/>
	</g>
</g>
<path class="st2" d="M213.5,505.2v2.1v3l0,0c-0.4,0-0.7,0.4-0.7,0.8s0.3,0.7,0.7,0.7l0,0v1.5l0,0c-0.4,0-0.7,0.4-0.7,0.8
	c0,0.4,0.3,0.7,0.7,0.7l0,0v0.7c0,0.2,0.1,0.4,0.2,0.5l1.5,1.5c0.1,0.1,0.3,0.2,0.5,0.2h3.2c1,1.4,2.6,2.3,4.3,2.3s3.3-0.9,4.3-2.3
	h3.2c0.2,0,0.4-0.1,0.5-0.2l1.5-1.5c0.1-0.1,0.2-0.3,0.2-0.5V514l0,0c0.4,0,0.7-0.4,0.7-0.8c0-0.4-0.4-0.7-0.7-0.7V511l0,0
	c0.4,0,0.7-0.4,0.7-0.8s-0.4-0.7-0.7-0.7v-2.3v-2.1c5.2-3.3,8.2-9,8.2-15.1c0-9.9-8.1-18-18-18s-18,8.1-18,18
	C205.2,496.2,208.3,501.9,213.5,505.2L213.5,505.2z M215,508.1h16.5v1.6l-16.5,0.6V508.1z M223.2,518.6c-0.8,0-1.6-0.3-2.3-0.8h4.5
	C224.8,518.3,224.1,518.6,223.2,518.6L223.2,518.6z M231.5,515.2l-1.1,1.1H216l-1.1-1.1v-0.5l16.5-0.6v1.1H231.5z M231.5,512.6
	l-16.5,0.6v-1.5l16.5-0.6V512.6z M223.2,473.6c9.1,0,16.5,7.4,16.5,16.5c0,5.8-2.9,11-7.9,14.1c-0.2,0.1-0.4,0.4-0.4,0.6v1.8H215
	v-1.8c0-0.3-0.1-0.5-0.4-0.6c-4.9-3-7.9-8.3-7.9-14.1C206.7,481,214.1,473.6,223.2,473.6z"/>
<g>
	<path class="st3" d="M550.5,492.8h-6.6v-14.4c0-2.5-2-4.6-4.6-4.6h-30.6l-1.8-1.5c-0.2-0.2-0.5-0.3-0.8-0.3h-11.5
		c-2.5,0-4.6,2-4.6,4.6v34c0,2.5,2,4.6,4.6,4.6h14.3v3.7c0,0.7,0.5,1.2,1.2,1.2h40.4c0.7,0,1.2-0.5,1.2-1.2V494
		C551.7,493.4,551.1,492.8,550.5,492.8L550.5,492.8z M492.5,476.6c0-1.2,1-2.2,2.2-2.2h11.1l1.8,1.5c0.2,0.2,0.5,0.3,0.8,0.3h31.1
		c1.2,0,2.2,1,2.2,2.2v5.4H537V480c0-0.7-0.5-1.2-1.2-1.2h-37.7c-0.7,0-1.2,0.5-1.2,1.2v3.8h-4.4L492.5,476.6L492.5,476.6z
		 M534.6,483.8h-35.3v-2.6h35.3V483.8z M494.6,512.8c-1.2,0-2.2-1-2.2-2.2v-24.4h49v6.6h-31.3c-0.7,0-1.2,0.5-1.2,1.2v18.7
		L494.6,512.8L494.6,512.8z M549.3,517.7h-38v-22.4h38V517.7z"/>
	<path class="st3" d="M516,510.3c1.5,0,1.8,0.4,1.9,0.6c0.4,0.5,0.4,1.7,0.4,2.7c0,0.7,0.5,1.2,1.2,1.2h21.6c0.7,0,1.2-0.5,1.2-1.2
		c0-1,0-2.2,0.4-2.7c0.1-0.2,0.4-0.6,1.9-0.6c0.7,0,1.2-0.5,1.2-1.2v-5.3c0-0.7-0.5-1.2-1.2-1.2c-1.5,0-1.8-0.4-1.9-0.6
		c-0.4-0.5-0.4-1.7-0.4-2.7c0-0.7-0.5-1.2-1.2-1.2h-21.6c-0.7,0-1.2,0.5-1.2,1.2c0,1,0,2.2-0.4,2.7c-0.1,0.2-0.4,0.6-1.9,0.6
		c-0.7,0-1.2,0.5-1.2,1.2v5.3C514.8,509.7,515.3,510.3,516,510.3L516,510.3z M517.2,504.9c1-0.1,2-0.5,2.7-1.6
		c0.5-0.8,0.7-1.7,0.8-2.9H540c0.1,1.2,0.3,2.1,0.8,2.9c0.7,1,1.7,1.4,2.7,1.6v3c-1,0.1-2,0.5-2.7,1.6c-0.5,0.8-0.7,1.7-0.8,2.9
		h-19.3c-0.1-1.2-0.3-2.1-0.8-2.9c-0.7-1-1.7-1.4-2.7-1.6V504.9L517.2,504.9z"/>
</g>
<path class="st4" d="M396,487.2h-5.4l-7.6-14.3c-0.4-0.8-1.4-1.1-2.1-0.7c-0.8,0.4-1.1,1.4-0.7,2.1l6.8,12.8h-29.8l6.8-12.8
	c0.4-0.8,0.1-1.7-0.7-2.1c-0.8-0.4-1.7-0.1-2.1,0.7l-7.6,14.3h-5.4c-1.7,0-3,1.4-3,3v3.5c0,1.6,1.2,2.9,2.8,3l5.3,22.1
	c0.2,0.7,0.8,1.2,1.5,1.2h34.6c0.7,0,1.4-0.5,1.5-1.2l5.3-22.1c1.6-0.1,2.8-1.4,2.8-3v-3.5C399,488.6,397.6,487.2,396,487.2
	L396,487.2z M348.3,490.4h47.6v3.2h-47.6V490.4z M390.9,505.3H384l1.1-8.5h7.9L390.9,505.3z M373.6,516.9v-8.5h6.7l-1.1,8.5H373.6z
	 M364.8,516.9l-1.1-8.5h6.7v8.5H364.8z M351.2,496.8h7.9l1.1,8.5h-6.9L351.2,496.8z M362.3,496.8h8.2v8.5h-7.1L362.3,496.8z
	 M373.6,505.3v-8.5h8.2l-1.1,8.5H373.6z M354,508.4h6.6l1.1,8.5H356L354,508.4z M388.1,516.9h-5.6l1.1-8.5h6.6L388.1,516.9z"/>
<g id="outline">
	<g>
		<path class="st0" d="M153.2,635.4h-4.3l-8.8-10.2l7.5-7.5c0.6-0.6,0.6-1.8,0-2.4l-5.1-5.1c-0.6-0.6-1.8-0.6-2.4,0l-11.7,11.7
			l-0.9,0.2v-43.2H52v102.9h75.5v-26.1c2.4,0.9,5-0.1,6.2-2.3l2.8,3.6c0.4,0.4,0.9,0.7,1.4,0.7h6.6l8.3,3.3c0.9,0.4,1.9-0.1,2.2-0.9
			c0.1-0.2,0.1-0.4,0.1-0.6v-22.3C154.9,636.2,154.1,635.4,153.2,635.4L153.2,635.4z M141.2,613.9l2.7,2.7l-2.7,2.7l-2.7-2.7
			L141.2,613.9z M136.1,619l2.7,2.7l-12,12h-5.4L136.1,619z M116.5,633.7h-2.4l1.1-5.4l8.6-1.9L116.5,633.7z M124.1,678.4H55.4
			v-96.1H124v40.5l-10.7,2.4c-0.6,0.1-1.2,0.6-1.3,1.4l-1.5,7.4c-2.7,0.8-4.3,3.6-3.5,6.3c0.3,1.1,1,2,1.9,2.7l-3.3,3.3
			c-0.1,0.1-0.2,0.2-0.3,0.4l-5.1,8.5c-0.3,0.5-0.4,1.1-0.1,1.7l-1.4,1.4c-0.1,0.1-0.1,0.1-0.2,0.3c-0.4,0.6-1.1,1.5-1.9,1.5
			c-0.9,0-1.9-1.1-2.1-1.6c-0.3-0.5-0.9-0.8-1.4-0.8l0,0c-0.6,0-1.1,0.3-1.4,0.8c-0.4,0.6-1.1,1.5-1.9,1.5c-0.9,0-1.8-1-2.1-1.5
			c-0.4-0.6-1.2-0.9-2-0.6c-1.3,0.4-2.6,0.7-4.1,0.9c0.6-0.8,1.1-1.6,1.5-2.6c0.8-2,0.5-4.3-0.6-6.1c-1.3-2.7-4.1-4.3-7.1-4.1
			c-3.3,0.5-6.2,2.8-7.3,6c-1,2.4-0.4,5.2,1.4,7.1c1,1,2.1,1.7,3.4,2.3c-2.5,1.4-5.1,2.6-7.8,3.5l1.1,3.3c4.1-1.4,8-3.3,11.6-5.7
			c2.6,0.1,5.3-0.1,7.8-0.9c1.1,1.2,2.6,1.9,4.1,2.1c1.3,0,2.4-0.5,3.3-1.4c1,0.9,2.2,1.4,3.6,1.5l0,0c1.9-0.1,3.6-1.2,4.6-2.8
			l1.3-1.3c0.2,0.1,0.5,0.2,0.8,0.2s0.6-0.1,0.9-0.2l8.5-5.1c0.1-0.1,0.2-0.1,0.4-0.3l3.9-3.9v1c0,2.8,2.3,5.1,5.1,5.1
			c0.6,0,1.1-0.1,1.7-0.3L124.1,678.4z M109.3,652.2l-5.1,3.1l3.1-5.1L109.3,652.2z M80.1,654.8c-0.7,1.5-1.8,2.8-3.1,3.8
			c-1.8-0.2-3.5-0.9-4.8-2.1c-0.9-0.9-1.1-2.3-0.6-3.5c0.7-1.9,2.4-3.3,4.4-3.7c0.1,0,0.2,0,0.4,0c1.6,0.1,2.9,1.1,3.5,2.5
			C80.3,652.6,80.4,653.7,80.1,654.8L80.1,654.8z M109.3,647.5l3.4-3.4h5.4l-6.1,6.1L109.3,647.5z M124.1,650.9
			c0,0.9-0.8,1.7-1.7,1.7c-0.9,0-1.7-0.8-1.7-1.7v-4.4l2.4-2.4h1V650.9z M130.9,650.9c0,0.9-0.8,1.7-1.7,1.7c-0.9,0-1.7-0.8-1.7-1.7
			v-5.7l3.4,4.6V650.9L130.9,650.9z M151.5,656.9l-6.2-2.5c-0.2-0.1-0.4-0.1-0.6-0.1h-6.1l-9.8-13c-0.4-0.4-0.9-0.7-1.4-0.7h-15.5
			c-0.9,0-1.7-0.8-1.7-1.7c0-0.9,0.8-1.7,1.7-1.7h15.5c0.4,0,0.9-0.2,1.2-0.5l9-9l9.1,10.6c0.4,0.4,0.8,0.6,1.3,0.6h3.4L151.5,656.9
			L151.5,656.9z"/>
	</g>
	<g>
		<path class="st0" d="M140.9,636.1l-2.8,2.1l5.1,6.8c0.4,0.4,0.9,0.7,1.4,0.7h3.4v-3.4h-2.6L140.9,636.1z"/>
	</g>
	<g>
		<rect x="117.2" y="671.5" class="st0" width="3.4" height="3.4"/>
	</g>
	<g>
		<rect x="110.3" y="671.5" class="st0" width="3.4" height="3.4"/>
	</g>
	<g>
		<path class="st0" d="M89.8,609.7c6.6,0,12-5.3,12-12c0-6.7-5.4-12-12-12c-6.6,0-12,5.3-12,12C77.7,604.4,83.1,609.7,89.8,609.7z
			 M89.8,589.1c4.8,0,8.5,3.8,8.5,8.5c0,4.8-3.8,8.5-8.5,8.5c-4.7,0-8.5-3.8-8.5-8.5C81.1,593,85,589.1,89.8,589.1z"/>
	</g>
	<g>
		<rect x="67.5" y="613.1" class="st0" width="51.5" height="3.4"/>
	</g>
	<g>
		<rect x="60.6" y="620" class="st0" width="30.9" height="3.4"/>
	</g>
	<g>
		<rect x="94.9" y="620" class="st0" width="24" height="3.4"/>
	</g>
	<g>
		<rect x="60.6" y="626.9" class="st0" width="13.7" height="3.4"/>
	</g>
	<g>
		<rect x="77.7" y="626.9" class="st0" width="30.9" height="3.4"/>
	</g>
	<g>
		<rect x="60.6" y="633.7" class="st0" width="24" height="3.4"/>
	</g>
	<g>
		<rect x="88.1" y="633.7" class="st0" width="15.5" height="3.4"/>
	</g>
</g>
</svg>
