<?xml version="1.0" encoding="utf-8"?>
<!-- Generator: Adobe Illustrator 22.1.0, SVG Export Plug-In . SVG Version: 6.00 Build 0)  -->
<svg version="1.0" id="Laag_1" xmlns="http://www.w3.org/2000/svg" xmlns:xlink="http://www.w3.org/1999/xlink" x="0px" y="0px"
	 viewBox="0 0 1280 192" style="enable-background:new 0 0 1280 192;" xml:space="preserve">
<style type="text/css">
	.st0{fill:#FBE609;}
	.st1{fill:#EABE03;}
</style>
<g>
	<rect class="st0" width="1280" height="192"/>
	<rect y="16" class="st1" width="320" height="16"/>
	<rect y="48" class="st1" width="320" height="8"/>
	<rect y="80" class="st1" width="320" height="2"/>
	<rect y="104" class="st1" width="320" height="2"/>
	<rect y="160" class="st1" width="320" height="2"/>
	<rect x="320" y="48" class="st1" width="20" height="2"/>
	<rect x="463.8" y="48" class="st1" width="40" height="4"/>
	<rect x="600" y="48" class="st1" width="40" height="4"/>
	<rect x="320" y="80" class="st1" width="320" height="2"/>
	<rect x="320" y="160" class="st1" width="320" height="2"/>
	<rect x="640" y="16" class="st1" width="320" height="4"/>
	<rect x="740" y="48" class="st1" width="220" height="2"/>
	<rect x="640" y="80" class="st1" width="320" height="2"/>
	<rect x="640" y="112" class="st1" width="320" height="16"/>
	<rect x="640" y="160" class="st1" width="320" height="2"/>
	<rect x="960" y="48" class="st1" width="320" height="16"/>
	<rect x="960" y="80" class="st1" width="320" height="2"/>
	<rect x="960" y="112" class="st1" width="320" height="16"/>
	<rect x="960" y="160" class="st1" width="320" height="2"/>
</g>
</svg>
