<?xml version="1.0" encoding="utf-8"?>
<!-- Generator: Adobe Illustrator 22.1.0, SVG Export Plug-In . SVG Version: 6.00 Build 0)  -->
<svg version="1.0" id="Laag_1" xmlns="http://www.w3.org/2000/svg" xmlns:xlink="http://www.w3.org/1999/xlink" x="0px" y="0px"
	 viewBox="0 0 370 370" style="enable-background:new 0 0 370 370;" xml:space="preserve">
<style type="text/css">
	.st0{fill:#FBE609;}
	.st1{fill:none;}
	.st2{fill:#EC911F;stroke:#EC911F;stroke-width:1.5;stroke-miterlimit:10;}
</style>
<path class="st0" d="M185,20.4c70.3,0,130.3,44.1,153.9,106.1h20.6C335,53.5,266.2,1,185,1C127.9,1,76.8,27,43.1,67.9h26.3
	C99.1,38.5,139.9,20.4,185,20.4z M28.2,134.8H21c0.9-2.8,1.8-5.6,2.8-8.4h7.3c5.8-15.1,13.7-29.2,23.4-41.8H30.8
	C11.9,113.5,1,148,1,185h19.4C20.4,167.5,23.1,150.6,28.2,134.8z M349.6,185H369c0-17.4-2.4-34.2-6.9-50.2h-20.3
	C346.9,150.6,349.6,167.5,349.6,185z M304.8,297.9h9.2c-2.5,2.9-5.1,5.7-7.8,8.4h-9.9c-29.3,26.9-68.4,43.3-111.3,43.3
	s-82-16.4-111.3-43.3H46.6C80.4,344.7,129.8,369,185,369c78,0,144.7-48.6,171.4-117.1h-21C327.8,269,317.4,284.5,304.8,297.9z
	 M20.4,187.1H1c0.5,41.7,14.8,80.2,38.7,110.8h25.5C37.9,268.9,21,230,20.4,187.1z M341.8,235.2h20.3c4.3-15.3,6.7-31.4,6.9-48.1
	h-19.4C349.4,203.8,346.7,220,341.8,235.2z"/>
<rect class="st1" width="370" height="370"/>
<path class="st2" d="M294.2,223.6H287v-8.3c0-0.4,0-0.7-0.1-1c-0.2-2.8-2.5-5-5.1-5h-20.6c-2.9,0-5.2,2.5-5.2,5.5v8.8h-10.3v-8.8
	c0-3-2.3-5.5-5.2-5.5h-20.6c-2.9,0-5.2,2.5-5.2,5.5v8.8h-59.9c-3.6,0-6.6,3-6.6,6.6v45.3c0,3.6,2.9,6.6,6.6,6.6h139.3
	c3.6,0,6.6-3,6.6-6.6v-45.3C300.8,226.5,297.8,223.6,294.2,223.6z M262.9,216.7h17.1v6.9h-17.1V216.7z M221.6,216.2h17.2v7.4h-17.2
	V216.2z M293.9,275.1L293.9,275.1H155.2v-44.7h138.7V275.1z M148.1,119l109.2,62.4c1,0.6,2.1,0.9,3.2,0.9c2.3,0,4.4-1.2,5.7-3.2
	l22.2-38c0.9-1.5,1.1-3.3,0.7-4.9c-0.5-1.7-1.5-3.1-3-4l-5.2-3l3.9-6.9c1.4-2.6,0.6-5.9-1.8-7.3l-18.5-11c-1.2-0.7-2.6-0.9-3.9-0.5
	c-1.4,0.4-2.6,1.3-3.4,2.7l-4,7.2l-7-4l4.3-7.6c1.4-2.6,0.6-5.9-1.8-7.3l-18.5-11c-1.2-0.7-2.6-0.9-3.9-0.5
	c-1.4,0.4-2.6,1.3-3.4,2.7l-4.5,8l-7-4l4.7-8.4c1.4-2.6,0.6-5.9-1.8-7.3l-18.5-11c-1.2-0.7-2.6-0.9-3.9-0.5
	c-1.4,0.4-2.6,1.3-3.4,2.7l-4.9,8.7l-6.7-3.8c-3.1-1.8-7.1-0.7-8.9,2.4l-22.2,38c-0.9,1.5-1.1,3.2-0.7,4.9
	C145.5,116.8,146.6,118.2,148.1,119z M262.4,110.8l15.7,9.3l-3.2,5.7l-15.8-9L262.4,110.8z M228,90.1l15.7,9.3l-3.6,6.4l-15.8-9
	L228,90.1z M193.6,69.5l15.6,9.3l-4,7.2l-15.8-9L193.6,69.5z M173.7,75.9l108.5,62.1l-21.8,37.4l-108.5-62.1L173.7,75.9z M135,223.6
	H75.7c-3.6,0-6.5,3-6.5,6.6v45.3c0,3.6,2.9,6.6,6.5,6.6H135c3.6,0,6.5-3,6.5-6.6v-45.3C141.4,226.5,138.5,223.6,135,223.6z
	 M134.6,275.1H76.1v-44.7h58.4V275.1z M75.8,220.1h127.8c3.6,0,6.6-3,6.6-6.6v-45.3c0-3.6-2.9-6.6-6.6-6.6h-7.2v-8.3
	c0-3-2.3-5.5-5.2-5.5h-20.6c-2.9,0-5.2,2.5-5.2,5.5v8.3h-10.3v-8.3c0-3-2.3-5.5-5.2-5.5h-20.6c-2.9,0-5.2,2.5-5.2,5.5v8.3h-6.9v-8.3
	c0-3-2.3-5.5-5.2-5.5H91.6c-2.9,0-5.2,2.5-5.2,5.5v8.3H75.8c-3.6,0-6.6,3-6.6,6.6v45.3C69.2,217.2,72.2,220.1,75.8,220.1z
	 M172.4,154.8h17.2v6.9h-17.2V154.8z M131.1,154.8h17.2v6.9h-17.2V154.8z M93.3,154.8h17.2v6.9H93.3V154.8z M76.1,168.6h127.2v44.7
	h0H76.1V168.6z"/>
</svg>
