<?xml version="1.0" encoding="utf-8"?>
<!-- Generator: Adobe Illustrator 22.1.0, SVG Export Plug-In . SVG Version: 6.00 Build 0)  -->
<svg version="1.0" id="Laag_1" xmlns="http://www.w3.org/2000/svg" xmlns:xlink="http://www.w3.org/1999/xlink" x="0px" y="0px"
	 viewBox="0 0 370 370" style="enable-background:new 0 0 370 370;" xml:space="preserve">
<style type="text/css">
	.st0{fill:#EC911F;}
	.st1{fill:#FBE609;}
	.st2{fill:none;}
</style>
<path class="st0" d="M286.2,138.9c6,0,10.8-4.9,10.8-10.8c0-4.9-3.3-9.1-7.8-10.4l0.4-19.2c4.3-1.4,7.4-5.5,7.4-10.2
	c0-6-4.9-10.8-10.8-10.8c-5.5,0-10.1,4.2-10.7,9.6l-45,10.3c-1.9-3.2-5.3-5.4-9.3-5.4c-2.3,0-4.4,0.7-6.2,1.9
	c-8.9-6-19.2-9.2-30-9.2c-6.1,0-12.1,1.1-17.8,3.1c-2-1.9-4.6-3.1-7.5-3.1c-4.1,0-7.7,2.3-9.5,5.7l-26.9-4.1
	c-0.9-5-5.4-8.8-10.6-8.8c-6,0-10.8,4.9-10.8,10.8c0,2.3,0.7,4.4,1.9,6.1l-16.9,23.3c-1-0.3-2-0.5-3.1-0.5c-6,0-10.8,4.9-10.8,10.8
	c0,5.7,4.4,10.3,9.9,10.8l12.9,49c-2.9,2-4.7,5.2-4.7,9c0,1,0.2,1.9,0.4,2.8c-11.7,10.3-18.5,24.9-18.5,40.6
	c0,29.9,24.3,54.2,54.2,54.2c18.7,0,36-9.7,45.9-25.4c0.3,0,0.6,0.1,0.9,0.1l4.4,13.2c-2.5,2-4.2,5-4.2,8.5c0,6,4.9,10.8,10.8,10.8
	c4.7,0,8.7-3,10.2-7.2h37.5c1.5,4.2,5.5,7.2,10.2,7.2c5.1,0,9.4-3.6,10.5-8.4c25.1-5,43.7-27.3,43.7-53.1c0-12.6-4.4-24.6-12.4-34.3
	c0.9-1.6,1.5-3.5,1.5-5.5c0-6-4.9-10.8-10.8-10.8c-0.3,0-0.7,0.1-1,0.1l-13.2-28.5c2-2,3.3-4.7,3.3-7.8c0-1.2-0.2-2.3-0.6-3.4
	l16.5-12.8C282.1,138.3,284.1,138.9,286.2,138.9z M282.4,98.4l-0.4,19.7c-1.5,0.7-2.9,1.7-3.9,2.9l-44-17.1l43-9.8
	C278.4,96,280.2,97.6,282.4,98.4z M286.2,131.7c-2,0-3.6-1.6-3.6-3.6c0-2,1.6-3.6,3.6-3.6c2,0,3.6,1.6,3.6,3.6
	C289.9,130.1,288.2,131.7,286.2,131.7z M286.2,84.7c2,0,3.6,1.6,3.6,3.6s-1.6,3.6-3.6,3.6c-2,0-3.6-1.6-3.6-3.6
	S284.3,84.7,286.2,84.7z M221.2,99.1c2,0,3.6,1.6,3.6,3.6s-1.6,3.6-3.6,3.6s-3.6-1.6-3.6-3.6S219.2,99.1,221.2,99.1z M210.8,99.7
	c-0.3,1-0.5,2-0.5,3c0,6,4.9,10.8,10.8,10.8c1.1,0,2.1-0.2,3-0.5c5.1,7.7,7.8,16.6,7.8,25.8c0,11.4-4.1,21.8-10.8,30v-7.3
	c0-6.4-4.3-12.1-10.5-13.9l-14.8-4.2v-4.6c4.4-3.3,7.2-8.5,7.2-14.4v-7.2c0-10-8.1-18.1-18.1-18.1s-18.1,8.1-18.1,18.1v7.2
	c0,5.9,2.9,11.1,7.2,14.4v4.6l-14.8,4.2c-6.2,1.8-10.5,7.5-10.5,13.9v7.2c-4.1-4.9-7.2-10.6-9-17c3.2-1.9,5.4-5.3,5.4-9.3
	c0-4.5-2.8-8.4-6.7-10c1.5-10.8,6.7-20.8,14.8-28.2c1.8,1.3,4,2.1,6.3,2.1c6,0,10.8-4.9,10.8-10.8c0-0.4-0.1-0.8-0.1-1.3
	c4.7-1.5,9.6-2.4,14.6-2.4C194.2,91.9,203.1,94.6,210.8,99.7z M185,135.3c-6,0-10.8-4.9-10.8-10.8v-7.2c0-6,4.9-10.8,10.8-10.8
	s10.8,4.9,10.8,10.8v7.2C195.8,130.4,191,135.3,185,135.3z M185,142.5c1.2,0,2.4-0.1,3.6-0.4v2.5l-3.6,3.6l-3.6-3.6v-2.5
	C182.6,142.4,183.8,142.5,185,142.5z M176.7,150.2l8.3,8.3l8.3-8.3l15.4,4.4c3.1,0.9,5.2,3.7,5.2,7v14.3c-8,6.3-18,10-28.9,10
	c-10.8,0-20.9-3.8-28.9-10.1v-14.3c0-3.2,2.2-6.1,5.2-7L176.7,150.2z M101.8,193.1c2,0,3.6,1.6,3.6,3.6c0,2-1.6,3.6-3.6,3.6
	c-2,0-3.6-1.6-3.6-3.6C98.2,194.8,99.8,193.1,101.8,193.1z M102.7,186l-12.9-49c1.1-0.7,2-1.6,2.7-2.7l31,8.9c0.1,2.3,1,4.5,2.4,6.2
	l-22,36.8C103.6,186,103.2,186,102.7,186z M112.7,99.1c0.1,0,0.3,0,0.4,0l14.1,35.3c-0.6,0.6-1.2,1.2-1.7,1.8l-31-8.9
	c-0.1-2-0.8-3.9-1.8-5.5l16.9-23.3C110.6,98.9,111.6,99.1,112.7,99.1z M122.2,93.4l26.9,4.1c0,0.3,0.1,0.5,0.2,0.7
	c-8.6,7.6-14.6,17.8-17.1,29l-12.3-30.9C120.8,95.5,121.6,94.5,122.2,93.4z M134.4,138.9c2,0,3.6,1.6,3.6,3.6c0,2-1.6,3.6-3.6,3.6
	s-3.6-1.6-3.6-3.6C130.8,140.5,132.4,138.9,134.4,138.9z M159.7,91.9c2,0,3.6,1.6,3.6,3.6s-1.6,3.6-3.6,3.6s-3.6-1.6-3.6-3.6
	S157.7,91.9,159.7,91.9z M112.7,84.7c2,0,3.6,1.6,3.6,3.6s-1.6,3.6-3.6,3.6s-3.6-1.6-3.6-3.6S110.7,84.7,112.7,84.7z M80.1,128.1
	c0-2,1.6-3.6,3.6-3.6c2,0,3.6,1.6,3.6,3.6c0,2-1.6,3.6-3.6,3.6C81.8,131.7,80.1,130.1,80.1,128.1z M98.2,277.1v-14.3
	c0-3.2,2.2-6.1,5.2-7l15.4-4.4l8.3,8.3l8.3-8.3l15.4,4.4c3.1,0.9,5.2,3.7,5.2,7v14.4c-8.1,6.4-18.3,10-28.9,10
	C116.2,287.2,106.2,283.4,98.2,277.1z M127.1,236.5c-6,0-10.8-4.9-10.8-10.8v-7.2c0-6,4.9-10.8,10.8-10.8c6,0,10.8,4.9,10.8,10.8
	v7.2C138,231.7,133.1,236.5,127.1,236.5z M127.1,243.8c1.2,0,2.4-0.1,3.6-0.4v2.5l-3.6,3.6l-3.6-3.6v-2.5
	C124.7,243.6,125.9,243.8,127.1,243.8z M163.3,270.1v-7.3c0-6.4-4.3-12.1-10.5-13.9l-14.8-4.2v-4.6c4.4-3.3,7.2-8.5,7.2-14.4v-7.2
	c0-10-8.1-18.1-18.1-18.1s-18.1,8.1-18.1,18.1v7.2c0,5.9,2.9,11.1,7.2,14.4v4.6l-14.8,4.2c-6.2,1.8-10.5,7.5-10.5,13.9v7.3
	c-6.8-8.1-10.8-18.6-10.8-30c0-13.3,5.6-25.7,15.4-34.6c1.8,1.3,4,2.1,6.3,2.1c6,0,10.8-4.9,10.8-10.8c0-0.4-0.1-0.8-0.1-1.2
	c4.7-1.6,9.6-2.4,14.6-2.4c25.9,0,47,21.1,47,47c0,2.4-0.3,4.8-0.7,7.3c-5.7,0.4-10.2,5-10.2,10.8c0,3,1.2,5.7,3.2,7.6
	C165.5,267.4,164.4,268.8,163.3,270.1z M174.2,254.6c2,0,3.6,1.6,3.6,3.6c0,2-1.6,3.6-3.6,3.6s-3.6-1.6-3.6-3.6
	C170.5,256.2,172.2,254.6,174.2,254.6z M185,294.4c-2,0-3.6-1.6-3.6-3.6s1.6-3.6,3.6-3.6s3.6,1.6,3.6,3.6S187,294.4,185,294.4z
	 M242.9,236.5c-6,0-10.8-4.9-10.8-10.8v-7.2c0-6,4.9-10.8,10.8-10.8c6,0,10.8,4.9,10.8,10.8v7.2
	C253.7,231.7,248.8,236.5,242.9,236.5z M242.9,243.8c1.2,0,2.4-0.1,3.6-0.4v2.5l-3.6,3.6l-3.6-3.6v-2.5
	C240.4,243.6,241.6,243.8,242.9,243.8z M234.6,251.4l8.3,8.3l8.3-8.3l15.4,4.4c3.1,0.9,5.2,3.7,5.2,7v14.3c-5.5,4.3-12.1,7.5-19.2,9
	c-1.8-3.6-5.4-6.1-9.7-6.1c-4.3,0-8,2.5-9.7,6.1c-7.2-1.5-13.7-4.6-19.2-9v-14.3c0-3.2,2.2-6.1,5.2-7L234.6,251.4z M242.9,294.4
	c-2,0-3.6-1.6-3.6-3.6s1.6-3.6,3.6-3.6s3.6,1.6,3.6,3.6S244.8,294.4,242.9,294.4z M279,270v-7.2c0-6.4-4.3-12.1-10.5-13.9l-14.8-4.2
	v-4.6c4.4-3.3,7.2-8.5,7.2-14.4v-7.2c0-10-8.1-18.1-18.1-18.1s-18.1,8.1-18.1,18.1v7.2c0,5.9,2.9,11.1,7.2,14.4v4.6l-14.8,4.2
	c-6.2,1.8-10.5,7.5-10.5,13.9v7.2c-6.8-8.2-10.8-18.6-10.8-29.8c0-25.9,21.1-47,47-47c7.6,0,15.1,1.9,21.9,5.5
	c-0.1,0.6-0.2,1.2-0.2,1.8c0,6,4.9,10.8,10.8,10.8c1.3,0,2.6-0.3,3.8-0.7c6.9,8.4,10.7,18.8,10.7,29.7
	C289.9,251.4,285.8,261.8,279,270z M279,200.4c0,2-1.6,3.6-3.6,3.6c-2,0-3.6-1.6-3.6-3.6c0-2,1.6-3.6,3.6-3.6
	C277.4,196.8,279,198.4,279,200.4z M267.5,191.9c-7.6-3.9-16.1-6-24.6-6c-29.9,0-54.2,24.3-54.2,54.2c0,19.8,11,37.6,27.4,47h-20.8
	c-1.5-4.1-5.4-7.1-10-7.2l-4.4-13.2c2.5-2,4.2-5,4.2-8.5c0-3.6-1.8-6.8-4.5-8.8c0.5-3.1,0.9-6.2,0.9-9.3c0-29.9-24.3-54.2-54.2-54.2
	c-5.5,0-10.9,0.9-16.1,2.5l21.1-35.2c0.2,0,0.4,0,0.5,0.1c6.4,23.3,27.9,39.9,52.3,39.9c29.9,0,54.2-24.3,54.2-54.2
	c0-10.1-2.8-19.8-8.1-28.4l44.3,17.2c0,0.1,0,0.2,0,0.3c0,1.2,0.2,2.3,0.6,3.4l-16.5,12.8c-1.7-1.1-3.7-1.7-5.8-1.7
	c-6,0-10.8,4.9-10.8,10.8c0,6,4.9,10.8,10.8,10.8c0.3,0,0.7-0.1,1-0.1L267.5,191.9z M253.7,157c-2,0-3.6-1.6-3.6-3.6
	c0-2,1.6-3.6,3.6-3.6s3.6,1.6,3.6,3.6C257.3,155.4,255.7,157,253.7,157z"/>
<path class="st1" d="M185,20.4c70.3,0,130.3,44.1,153.9,106.1h20.6C335,53.5,266.2,1,185,1C127.9,1,76.8,27,43.1,67.9h26.3
	C99.1,38.5,139.9,20.4,185,20.4z M28.2,134.8H21c0.9-2.8,1.8-5.6,2.8-8.4h7.3c5.8-15.1,13.7-29.2,23.4-41.8H30.8
	C11.9,113.5,1,148,1,185h19.4C20.4,167.5,23.1,150.6,28.2,134.8z M349.6,185H369c0-17.4-2.4-34.2-6.9-50.2h-20.3
	C346.9,150.6,349.6,167.5,349.6,185z M304.8,297.9h9.2c-2.5,2.9-5.1,5.7-7.8,8.4h-9.9c-29.3,26.9-68.4,43.3-111.3,43.3
	c-42.9,0-82-16.4-111.3-43.3H46.6C80.4,344.7,129.8,369,185,369c78,0,144.7-48.6,171.4-117.1h-21C327.8,269,317.4,284.5,304.8,297.9
	z M20.4,187.1H1c0.5,41.7,14.8,80.2,38.7,110.8h25.5C37.9,268.9,21,230,20.4,187.1z M341.8,235.2h20.3c4.3-15.3,6.7-31.4,6.9-48.1
	h-19.4C349.4,203.8,346.7,220,341.8,235.2z"/>
<rect class="st2" width="370" height="370"/>
</svg>
