<?xml version="1.0" encoding="utf-8"?>
<!-- Generator: Adobe Illustrator 22.1.0, SVG Export Plug-In . SVG Version: 6.00 Build 0)  -->
<svg version="1.0" id="Laag_1" xmlns="http://www.w3.org/2000/svg" xmlns:xlink="http://www.w3.org/1999/xlink" x="0px" y="0px"
	 viewBox="0 0 1280 4" style="enable-background:new 0 0 1280 4;" xml:space="preserve">
<style type="text/css">
	.st0{opacity:0.5;fill:#97B8BE;}
</style>
<polygon class="st0" points="727.8,4 656,4 656,1 0,1 0,0 1280,0 1280,1 727.8,1 "/>
</svg>
