<?xml version="1.0" encoding="utf-8"?>
<!-- Generator: Adobe Illustrator 22.1.0, SVG Export Plug-In . SVG Version: 6.00 Build 0)  -->
<svg version="1.0" id="Laag_1" xmlns="http://www.w3.org/2000/svg" xmlns:xlink="http://www.w3.org/1999/xlink" x="0px" y="0px"
	 viewBox="0 0 68 48" style="enable-background:new 0 0 68 48;" xml:space="preserve">
<style type="text/css">
	.st0{fill:#EC911F;}
</style>
<g>
	<path class="st0" d="M14.1,24.6h8.6V48H0.2V28.2C0.2,9.3,9.2,1.4,26.3,0l2.2,8.8C18.1,10.7,13.2,15.9,14.1,24.6z M53.3,24.6h8.8V48
		H39.5V28.2c0-18.8,9-26.8,26.1-28.2l2.2,8.8C57.5,10.7,52.6,15.9,53.3,24.6z"/>
</g>
</svg>
