<?xml version="1.0" encoding="utf-8"?>
<!-- Generator: Adobe Illustrator 22.1.0, SVG Export Plug-In . SVG Version: 6.00 Build 0)  -->
<svg version="1.0" id="Laag_1" xmlns="http://www.w3.org/2000/svg" xmlns:xlink="http://www.w3.org/1999/xlink" x="0px" y="0px"
	 viewBox="0 0 1280 192" style="enable-background:new 0 0 1280 192;" xml:space="preserve">
<style type="text/css">
	.st0{fill:#65979F;}
	.st1{fill:#97B8BE;}
</style>
<rect class="st0" width="1280" height="192"/>
<rect x="320" y="16" class="st1" width="160" height="1"/>
<rect x="640" y="16" class="st1" width="120" height="4"/>
<path class="st1" d="M860,105h420v-9h-160v8H860V105z M1060,56h220v-8H940v2h120V56z M1280,160H740v8h220v-6h160v10h80v-10h80V160z
	 M960,32h320V16H960V32z M680,31h40v-1h-40V31z M776.2,52h40v-4h-40V52z M148,136h-20v8h20V136z M680,48h-40v4h40V48z M0,30v1h188
	v-1H0z M1280,112H640v8h120v8h520V112z M776.2,80H0v2h1280v-2H856.2V68h-80V80z M420,101H0v4h420V101z M540,48H0v16h320V50h220V48z
	 M760,105h60v-1h-60V105z M658,160h-80v12h80V160z M320,160H0v1h108v11h40v-11h172V160z M780,142H460v6h120v-4h200V142z"/>
</svg>
