<?xml version="1.0" encoding="UTF-8"?>
<svg fill="#FEDB00" width="100pt" height="100pt" version="1.1" viewBox="0 0 100 100" xmlns="http://www.w3.org/2000/svg">
 <path d="m80.219 50l-3.3438-3.9062-24-28-9.0938 7.8125 20.656 24.094-20.656 24.094 9.0938 7.8125 24-28zm-24 0l-3.3438-3.9062-24-28-9.0938 7.8125 20.656 24.094-20.656 24.094 9.0938 7.8125 24-28z"/>
</svg>
