<?xml version="1.0" encoding="UTF-8"?>
<svg fill="#FF8C00" width="100pt" height="100pt" version="1.1" viewBox="0 0 100 100" xmlns="http://www.w3.org/2000/svg">
 <path d="m81.184 23.414l-19.285 3.3008c-0.1875 0.03125-0.33984 0.16797-0.39453 0.35156-0.054687 0.18359 0 0.37891 0.14062 0.50781l5.6758 5.25-10.414 10.516c-4.4609-1.9062-9.5156-1.8984-13.973 0.023437l-10.758-10.867 5.4375-5.6602c0.12891-0.13281 0.17188-0.32813 0.11328-0.50781-0.058593-0.17578-0.21484-0.30469-0.39844-0.33203l-18.539-2.8125c-0.16406-0.023438-0.32031 0.027344-0.43359 0.14453-0.11328 0.11328-0.16406 0.27734-0.13672 0.43359l3.2109 18.77c0.03125 0.1875 0.16406 0.33984 0.34766 0.39453 0.17969 0.054688 0.375 0.003907 0.50781-0.13281l5.0742-5.2812 9.8164 9.8164c-3.1523 3.2656-4.8828 7.5195-4.8828 12.039 0 9.625 7.918 17.457 17.652 17.457 9.7344 0 17.656-7.832 17.656-17.457 0-4.5352-1.7461-8.8047-4.9219-12.074l9.7422-9.7461 5.6914 5.2656c0.13672 0.125 0.33203 0.16797 0.50391 0.10547 0.17578-0.0625 0.30078-0.21484 0.32812-0.39453l2.8164-18.535c0.023437-0.16016-0.027344-0.32031-0.14453-0.43359-0.11328-0.11719-0.27734-0.16797-0.43359-0.14063zm-31.238 43.742c-4.3594 0-7.9023-3.4961-7.9023-7.7891 0-4.2969 3.5469-7.793 7.9023-7.793 4.3594 0 7.9023 3.4961 7.9023 7.793 0.003906 4.293-3.543 7.7891-7.9023 7.7891z"/>
</svg>
